<?xml version="1.0" encoding="utf-8"?>
<!-- Generator: Adobe Illustrator 21.0.0, SVG Export Plug-In . SVG Version: 6.00 Build 0)  -->
<svg version="1.1" id="Layer_1" xmlns="http://www.w3.org/2000/svg" xmlns:xlink="http://www.w3.org/1999/xlink" x="0px" y="0px"
	 viewBox="0 0 32 32" style="enable-background:new 0 0 32 32;" xml:space="preserve">
<style type="text/css">
	.st0{fill:#4A4A4A;}
	.st1{fill:#00B5F4;}
</style>
<g>
	<rect x="16" y="10" class="st0" width="12" height="2"/>
	<rect x="16" y="14" class="st0" width="12" height="2"/>
	<rect x="4" y="18" class="st0" width="24" height="2"/>
	<rect x="4" y="22" class="st0" width="24" height="2"/>
	<rect x="4" y="26" class="st0" width="24" height="2"/>
	<g>
		<path class="st1" d="M8,12l-1,4H4L8,5h3l4,11h-3l-1-4H8z M11,11l-1-3H9l-1,3H11z"/>
	</g>
</g>
</svg>
