<?xml version="1.0" encoding="utf-8"?>
<!-- Generator: Adobe Illustrator 21.0.0, SVG Export Plug-In . SVG Version: 6.00 Build 0)  -->
<svg version="1.1" id="Layer_1" xmlns="http://www.w3.org/2000/svg" xmlns:xlink="http://www.w3.org/1999/xlink" x="0px" y="0px"
	 viewBox="0 0 32 32" style="enable-background:new 0 0 32 32;" xml:space="preserve">
<style type="text/css">
	.st0{fill:url(#SVGID_1_);}
	.st1{fill:#4A4A4A;}
</style>
<g id="Layer_2">
	
		<linearGradient id="SVGID_1_" gradientUnits="userSpaceOnUse" x1="1.7189" y1="8.7548" x2="30.2811" y2="25.2452" gradientTransform="matrix(1 0 0 1 0 -1)">
		<stop  offset="0" style="stop-color:#FFFFFF"/>
		<stop  offset="0.7545" style="stop-color:#F5F5F5"/>
		<stop  offset="0.9973" style="stop-color:#F5F5F5"/>
	</linearGradient>
	<polygon class="st0" points="31,23 1,23 1,9 31,9 	"/>
</g>
<g>
	<path id="outline_5_" class="st1" d="M31,8H1C0,8,0,9,0,9v14c0,0,0,1,1,1h30c1,0,1-1,1-1V9C32,9,32,8,31,8z M30,22H2V10h28V22z"/>
	<rect x="4" y="12" class="st1" width="2" height="8"/>
</g>
</svg>
