<?xml version="1.0" encoding="utf-8"?>
<!-- Generator: Adobe Illustrator 24.2.3, SVG Export Plug-In . SVG Version: 6.00 Build 0)  -->
<svg version="1.1" id="Layer_1" xmlns="http://www.w3.org/2000/svg" xmlns:xlink="http://www.w3.org/1999/xlink" x="0px" y="0px"
	 viewBox="0 0 32 32" style="enable-background:new 0 0 32 32;" xml:space="preserve">
<style type="text/css">
	.st0{fill:#4A4A4A;}
</style>
<g id="Layer_2_1_">
	<path class="st0" d="M16,2C8.3,2,2,8.3,2,16s6.3,14,14,14s14-6.3,14-14S23.7,2,16,2z M16,28C9.4,28,4,22.6,4,16S9.4,4,16,4
		s12,5.4,12,12S22.6,28,16,28z"/>
</g>
<path class="st0" d="M6.8,18.4c0.2-0.7,1.1-0.9,1.7-0.5c1.3,1.1,2.1,2.7,4.6,2.4c0.1,0,2.1-0.3,2.2-0.3c3.7-0.4,6.4,1.6,7.5,2.6
	c0.3,0.3,0.5,0.8,0.3,1.2c-0.2,0.7-1.1,0.9-1.7,0.5c-1.3-1.1-2.7-2.1-5.8-2c-0.1,0-2.1,0.3-2.2,0.3c-3.7,0.4-5.2-2-6.3-3
	C6.8,19.3,6.7,18.8,6.8,18.4z"/>
<polygon class="st0" points="15.5,14.1 13.4,12 15.5,9.9 14.1,8.5 12,10.6 9.9,8.5 8.5,9.9 10.6,12 8.5,14.1 9.9,15.5 12,13.4 
	14.1,15.5 "/>
<polygon class="st0" points="23.9,14 21.8,11.9 23.9,9.8 22.5,8.3 20.4,10.5 18.3,8.3 16.9,9.8 19,11.9 16.9,14 18.3,15.4 
	20.4,13.3 22.5,15.4 "/>
</svg>
