<?xml version="1.0" encoding="utf-8"?>
<!-- Generator: Adobe Illustrator 25.4.1, SVG Export Plug-In . SVG Version: 6.00 Build 0)  -->
<svg version="1.1" id="Layer_1" xmlns="http://www.w3.org/2000/svg" xmlns:xlink="http://www.w3.org/1999/xlink" x="0px" y="0px"
	 viewBox="0 0 32 32" style="enable-background:new 0 0 32 32;" xml:space="preserve">
<style type="text/css">
	.st0{fill:#005B8C;}
	.st1{fill:#FFFFFF;}
</style>
<path class="st0" d="M3.8,6h24.3c1,0,1.8,0.8,1.8,1.8v16.3c0,1-0.8,1.8-1.8,1.8H3.8c-1,0-1.8-0.8-1.8-1.8V7.8C2,6.8,2.8,6,3.8,6z"/>
<polygon class="st1" points="8,14 18,14 18,10 25,16 18,22 18,18 8,18 "/>
</svg>
