<?xml version="1.0" encoding="utf-8"?>
<!-- Generator: Adobe Illustrator 21.0.0, SVG Export Plug-In . SVG Version: 6.00 Build 0)  -->
<svg version="1.1" id="Layer_1" xmlns="http://www.w3.org/2000/svg" xmlns:xlink="http://www.w3.org/1999/xlink" x="0px" y="0px"
	 viewBox="0 0 32 32" style="enable-background:new 0 0 32 32;" xml:space="preserve">
<style type="text/css">
	.st0{fill:#5A7CC6;}
</style>
<g>
	<g>
		<path class="st0" d="M2,2v28h14V20h-4v-4h4v-4c0-2.8,1.5-6,5.9-6H26v4h-4c-1.1,0-2,0.9-2,2v4h6l-1,4h-5v10h10V2H2z"/>
	</g>
</g>
</svg>
