<?xml version="1.0" encoding="utf-8"?>
<!-- Generator: Adobe Illustrator 21.0.0, SVG Export Plug-In . SVG Version: 6.00 Build 0)  -->
<svg version="1.1" id="Layer_1" xmlns="http://www.w3.org/2000/svg" xmlns:xlink="http://www.w3.org/1999/xlink" x="0px" y="0px"
	 viewBox="0 0 48 48" style="enable-background:new 0 0 48 48;" xml:space="preserve">
<style type="text/css">
	.st0{fill:#396DD0;}
	.st1{fill:#E5C51F;}
	.st2{fill:#6B5705;}
</style>
<g>
	<g>
		<path class="st0" d="M6,3v39h39L6,3z M12,18l18,18H12V18z"/>
	</g>
</g>
<rect x="26" y="7" class="st1" width="12" height="39"/>
<rect x="28" y="44" class="st2" width="4" height="2"/>
<rect x="28" y="38" class="st2" width="2" height="2"/>
<rect x="28" y="32" class="st2" width="4" height="2"/>
<rect x="28" y="26" class="st2" width="2" height="2"/>
<rect x="28" y="20" class="st2" width="4" height="2"/>
<rect x="28" y="13" class="st2" width="2" height="2"/>
<rect x="28" y="7" class="st2" width="4" height="2"/>
</svg>
