<?xml version="1.0" encoding="utf-8"?>
<!-- Generator: Adobe Illustrator 26.0.2, SVG Export Plug-In . SVG Version: 6.00 Build 0)  -->
<svg version="1.1" id="Layer_1" xmlns="http://www.w3.org/2000/svg" xmlns:xlink="http://www.w3.org/1999/xlink" x="0px" y="0px"
	 viewBox="0 0 48 48" style="enable-background:new 0 0 48 48;" xml:space="preserve">
<style type="text/css">
	.st0{fill:#21AAFE;}
	.st1{fill:#4A4A4A;}
</style>
<rect x="2" y="28" class="st0" width="18" height="6"/>
<polygon class="st0" points="34,31 20,22 20,40 "/>
<polygon class="st1" points="31.9,14 31.9,10 19.9,14 19.9,10 5.9,15 5.9,24 7.9,24 7.9,17 17.9,14 17.9,17 19.9,17 29.9,14 
	29.9,17 31.9,17 41.9,14 41.9,42 7.9,42 7.9,38 5.9,38 5.9,44 43.9,44 43.9,10 "/>
</svg>
