<?xml version="1.0" encoding="UTF-8"?>
<svg xmlns="http://www.w3.org/2000/svg" xmlns:xlink="http://www.w3.org/1999/xlink" width="32px" height="32px" viewBox="0 0 32 32" x="0px" y="0px" version="1.1">
  <defs/>
  <g>
    <path d="M21.5,15.7c0.4-0.9,0.2-1.7-0.7-2.2c-0.6-0.4-1.5-0.4-2.4,0.6c-0.8-0.7-1.6-1.4-2.4-2.1c0.4-0.8,0.5-1.6,0.4-2.4c-0.1-1-0.6-1.8-1.3-2.4c-0.9-0.7-2-1-3.1-1c-0.2,0-0.4-0.1-0.5-0.3c-0.1-0.2,0.1-0.4,0.2-0.5c0.7-0.4,1.4-0.7,2.2-0.8c1.7-0.3,3.2,0.1,4.6,0.9c0.5,0.3,1,0.7,1.4,1.1c0.9,0.8,1.7,1.6,2.7,2.3c0.5,0.4,0.6,0.9,0.6,1.4c0,0.9,0.6,1,1.3,1c0.3,0,0.6-0.1,0.8-0.1c0.1,0,0.3,0.1,0.4,0.1c0.6,0.5,1.2,1,1.9,1.5c0.2,0.2,0.3,0.4,0.1,0.6c-0.7,0.9-1.5,1.8-2.2,2.7c-0.4,0.4-0.7,0.9-1.1,1.3c-0.1,0.1-0.1,0.1-0.2,0.2c-0.1,0.1-0.3,0.2-0.5,0c-0.5-0.4-1-0.8-1.5-1.2C22.1,16.2,21.8,15.9,21.5,15.7z" fill="#4a4a4a" stroke="#4a4a4a" stroke-width="0"/>
    <path d="M15.5,13c0.8,0.7,1.6,1.3,2.4,2c-0.3,0.4-0.6,0.8-0.9,1.2c-0.7,0.9-1.4,1.9-2.1,2.8c-0.8,1.1-1.7,2.2-2.5,3.2c-1,1.3-2,2.5-3,3.8c-0.6,0.7-1.1,1.5-1.8,2.2c-0.7,0.8-2.1,1-3,0.3c-0.5-0.4-0.7-0.9-0.8-1.5c-0.1-0.9,0.3-1.7,0.9-2.3c0.9-1,1.9-2,2.8-3c0.7-0.7,1.3-1.5,2-2.2c1-1.1,2-2.2,3-3.3c0.2-0.2,0.5-0.5,0.7-0.7C13.9,14.7,14.7,13.9,15.5,13z" fill="#4a4a4a" stroke="#4a4a4a" stroke-width="0"/>
  </g>
</svg>
