<?xml version="1.0" encoding="utf-8"?>
<!-- Generator: Adobe Illustrator 21.0.0, SVG Export Plug-In . SVG Version: 6.00 Build 0)  -->
<svg version="1.1" id="Layer_1" xmlns="http://www.w3.org/2000/svg" xmlns:xlink="http://www.w3.org/1999/xlink" x="0px" y="0px"
	 viewBox="0 0 48 48" style="enable-background:new 0 0 48 48;" xml:space="preserve">
<style type="text/css">
	.st0{fill:#1AA9E8;}
	.st1{fill:#4A4A4A;}
</style>
<g id="Layer_2">
	<rect x="18" y="36" class="st0" width="12" height="2"/>
	<rect x="18" y="32" class="st1" width="24" height="2"/>
	<rect x="18" y="28" class="st0" width="10" height="2"/>
	<rect x="18" y="24" class="st0" width="12" height="2"/>
	<rect x="18" y="20" class="st0" width="10" height="2"/>
	<rect x="36" y="36" class="st0" width="6" height="2"/>
	<rect x="38" y="28" class="st0" width="4" height="2"/>
	<rect x="38" y="24" class="st0" width="4" height="2"/>
	<rect x="38" y="20" class="st0" width="4" height="2"/>
</g>
</svg>
