<?xml version="1.0" encoding="UTF-8"?>
<!-- Generator: Adobe Illustrator 19.2.1, SVG Export Plug-In . SVG Version: 6.00 Build 0)  -->
<svg xmlns="http://www.w3.org/2000/svg" xmlns:xlink="http://www.w3.org/1999/xlink" version="1.1" id="Layer_1" x="0px" y="0px" viewBox="0 0 48 48" style="enable-background:new 0 0 48 48;" xml:space="preserve">
<style type="text/css">
	.st0{display:none;}
	.st1{display:inline;}
	.st2{fill:url(#SVGID_1_);}
	.st3{fill:#4A4A4A;}
	.st4{fill:#1C8BE9;}
	.st5{fill:#B70000;}
</style>

<g id="Layer_2">
	<rect x="18" y="12" class="st5" width="14" height="2"/>
	<rect x="25" y="16" class="st5" width="14" height="2"/>
	<rect x="25" y="20" class="st5" width="14" height="2"/>
	<rect x="25" y="24" class="st5" width="14" height="2"/>
	<rect x="25" y="28" class="st5" width="14" height="2"/>
	<rect x="25" y="32" class="st5" width="14" height="2"/>
	<rect x="18" y="36" class="st5" width="10" height="2"/>
	<rect x="30" y="36" class="st5" width="2" height="2"/>
</g>
</svg>
