<?xml version="1.0" encoding="utf-8"?>
<!-- Generator: Adobe Illustrator 19.2.1, SVG Export Plug-In . SVG Version: 6.00 Build 0)  -->
<svg version="1.1" id="Layer_1" xmlns="http://www.w3.org/2000/svg" xmlns:xlink="http://www.w3.org/1999/xlink" x="0px" y="0px"
	 viewBox="0 0 32 32" style="enable-background:new 0 0 32 32;" xml:space="preserve">
<style type="text/css">
	.st0{fill:#1C8BE9;}
</style>
<rect x="12" y="8" class="st0" width="8" height="2"/>
<rect x="18" y="12" class="st0" width="8" height="2"/>
<rect x="18" y="16" class="st0" width="8" height="2"/>
<rect x="18" y="20" class="st0" width="8" height="2"/>
<rect x="12" y="24" class="st0" width="8" height="2"/>
<rect x="22" y="24" class="st0" width="2" height="2"/>
</svg>
