<?xml version="1.0" encoding="utf-8"?>
<!-- Generator: Adobe Illustrator 19.2.1, SVG Export Plug-In . SVG Version: 6.00 Build 0)  -->
<svg version="1.1" id="Layer_1" xmlns="http://www.w3.org/2000/svg" xmlns:xlink="http://www.w3.org/1999/xlink" x="0px" y="0px"
	 viewBox="0 0 32 32" style="enable-background:new 0 0 32 32;" xml:space="preserve">
<style type="text/css">
	.st0{fill:#4A4A4A;}
</style>
<rect x="8" y="4" class="st0" width="3" height="24"/>
<rect x="4" y="21" class="st0" width="24" height="3"/>
<rect x="4" y="7" class="st0" width="3" height="2"/>
<rect x="12" y="7" class="st0" width="16" height="2"/>
<rect x="23" y="25" class="st0" width="2" height="3"/>
<rect x="23" y="4" class="st0" width="2" height="16"/>
</svg>
