<?xml version="1.0" encoding="UTF-8"?>
<!-- Generated by Pixelmator Pro 3.6.14 -->
<svg viewBox="0 0 32 32" xmlns="http://www.w3.org/2000/svg">
    <path id="Path" fill="none" stroke="#ffffff" stroke-width="4" stroke-linecap="round" d="M 6 16 L 26 16"/>
</svg>
