<?xml version="1.0" encoding="utf-8"?>
<!-- Generator: Adobe Illustrator 19.2.1, SVG Export Plug-In . SVG Version: 6.00 Build 0)  -->
<svg version="1.1" id="Layer_2" xmlns="http://www.w3.org/2000/svg" xmlns:xlink="http://www.w3.org/1999/xlink" x="0px" y="0px"
	 viewBox="0 0 32 32" style="enable-background:new 0 0 32 32;" xml:space="preserve">
<style type="text/css">
	.st0{fill:#4A4A4A;}
</style>
<rect x="4" y="20" class="st0" width="1.9" height="7.9"/>
<rect x="4" y="26" class="st0" width="26" height="2"/>
<rect x="28" y="20" class="st0" width="2" height="7"/>
<rect x="16" y="4" class="st0" width="2" height="14"/>
<polygon class="st0" points="17,22 11,14 23,14 "/>
</svg>
