<?xml version="1.0" encoding="utf-8"?>
<!-- Generator: Adobe Illustrator 19.2.1, SVG Export Plug-In . SVG Version: 6.00 Build 0)  -->
<svg version="1.1" id="Layer_1" xmlns="http://www.w3.org/2000/svg" xmlns:xlink="http://www.w3.org/1999/xlink" x="0px" y="0px"
	 viewBox="0 0 48 48" style="enable-background:new 0 0 48 48;" xml:space="preserve">
<style type="text/css">
	.st0{fill:#F3F3F3;}
	.st1{fill:#F3F3F3;stroke:#F3F3F3;stroke-width:2;stroke-miterlimit:10;}
	.st2{fill:none;stroke:#F3F3F3;stroke-width:2;stroke-miterlimit:10;}
</style>
<rect x="6" y="22" class="st0" width="36" height="2"/>
<polygon class="st1" points="23.2,16 14,5 32.5,5 "/>
<polygon class="st2" points="23.2,30 14,41 32.5,41 "/>
</svg>
