<?xml version="1.0" encoding="utf-8"?>
<!-- Generator: Adobe Illustrator 19.2.1, SVG Export Plug-In . SVG Version: 6.00 Build 0)  -->
<svg version="1.1" id="Layer_1" xmlns="http://www.w3.org/2000/svg" xmlns:xlink="http://www.w3.org/1999/xlink" x="0px" y="0px"
	 viewBox="0 0 48 48" style="enable-background:new 0 0 48 48;" xml:space="preserve">
<style type="text/css">
	.st0{fill:none;stroke:#F3F3F3;stroke-width:3;}
	.st1{fill:#F3F3F3;}
</style>
<circle class="st0" cx="24" cy="24" r="20"/>
<g>
	<path id="pluscharacter" class="st1" d="M26,20.8c0-0.5-0.4-0.8-1-0.8h-2c-0.6,0-1,0.3-1,0.8v14.4c0,0.5,0.4,0.8,1,0.8h2
		c0.6,0,1-0.3,1-0.8V20.8z"/>
</g>
<circle class="st1" cx="30" cy="15" r="0"/>
<rect x="22" y="12" class="st1" width="4" height="4"/>
</svg>
