<?xml version="1.0" encoding="utf-8"?>
<!-- Generator: Adobe Illustrator 19.2.1, SVG Export Plug-In . SVG Version: 6.00 Build 0)  -->
<svg version="1.1" xmlns="http://www.w3.org/2000/svg" xmlns:xlink="http://www.w3.org/1999/xlink" x="0px" y="0px"
	 viewBox="0 0 48 48" style="enable-background:new 0 0 48 48;" xml:space="preserve">
<style type="text/css">
	.st1{display:inline;fill:#4A4A4A;}
	.st2{display:inline;}
	.st3{fill:#EFEFEF;}
	.st4{fill:#F3F3F3;}
	.st5{fill:#4A4A4A;}
	.st6{display:inline;fill:#F3F3F3;}
</style>
<!--g id="Layer_4">
	<circle class="st4" cx="10" cy="5" r="0"/>
	<path class="st4" d="M24,15c-10.8,0-19.5,8.7-19.5,9c0,0.2,8.7,9,19.5,9s20.5-9,20.5-9S34.8,15,24,15z M24,33c-5,0-9-4-9-9s4-9,9-9
		s9,4,9,9S29,33,24,33z"/>
	<circle class="st4" cx="27.9" cy="19.6" r="4.1"/>
</g-->
</svg>
