<?xml version="1.0" encoding="UTF-8"?>
<!-- Generator: Adobe Illustrator 19.2.1, SVG Export Plug-In . SVG Version: 6.00 Build 0)  -->
<svg xmlns="http://www.w3.org/2000/svg" xmlns:xlink="http://www.w3.org/1999/xlink" version="1.1" x="0px" y="0px" viewBox="0 0 48 48" style="enable-background:new 0 0 48 48;" xml:space="preserve">
<style type="text/css">
	.st0{display:none;}
	.st1{display:inline;}
	.st2{fill:#4A4A4A;}
	.st3{display:inline;fill:#4A4A4A;}
	.st4{fill:#0592E1;}
	.st5{fill:url(#SVGID_1_);}
</style>



<g id="Layer_4_1_">
	<rect x="16" y="19" class="st4" width="8" height="8"/>
	<linearGradient id="SVGID_1_" gradientUnits="userSpaceOnUse" x1="24" y1="42" x2="24" y2="11">
		<stop offset="0" style="stop-color:#FFFFFF"/>
		<stop offset="1" style="stop-color:#D1D1D1"/>
	</linearGradient>
	<rect x="8" y="11" class="st5" width="32" height="31"/>
</g>
</svg>
