<?xml version="1.0" encoding="UTF-8"?>
<!-- Generator: Adobe Illustrator 19.2.1, SVG Export Plug-In . SVG Version: 6.00 Build 0)  -->
<svg xmlns="http://www.w3.org/2000/svg" xmlns:xlink="http://www.w3.org/1999/xlink" version="1.1" x="0px" y="0px" viewBox="0 0 48 48" style="enable-background:new 0 0 48 48;" xml:space="preserve">
<style type="text/css">
	.st0{display:none;}
	.st1{display:inline;}
	.st2{fill:#4A4A4A;}
	.st3{display:inline;fill:#4A4A4A;}
	.st4{fill:url(#SVGID_1_);}
</style>

<g id="Layer_2">
	
		<linearGradient id="SVGID_1_" gradientUnits="userSpaceOnUse" x1="14.1699" y1="41.0263" x2="37.2942" y2="0.9737" gradientTransform="matrix(1 0 0 -1 0 48)">
		<stop offset="0" style="stop-color:#FFFFFF"/>
		<stop offset="0.1079" style="stop-color:#FFFFFF"/>
		<stop offset="0.6711" style="stop-color:#F4F4F4"/>
		<stop offset="0.8622" style="stop-color:#FFFFFF"/>
	</linearGradient>
	<polygon class="st4" points="2,42 46,42 46,6 30,6 22,14 2,14  "/>
</g>
</svg>
