<?xml version="1.0" encoding="UTF-8"?>
<!-- Generator: Adobe Illustrator 19.2.1, SVG Export Plug-In . SVG Version: 6.00 Build 0)  -->
<svg xmlns="http://www.w3.org/2000/svg" xmlns:xlink="http://www.w3.org/1999/xlink" version="1.1" x="0px" y="0px" viewBox="0 0 48 48" style="enable-background:new 0 0 48 48;" xml:space="preserve">
<style type="text/css">
	.st0{display:none;}
	.st1{display:inline;fill:url(#SVGID_1_);}
	.st2{display:inline;}
	.st3{fill:#4A4A4A;}
	.st4{display:inline;fill:#4A4A4A;}
	.st5{display:inline;fill:#F3F3F3;}
	.st6{fill:#F3F3F3;}
</style>


<g id="Layer_2">
	<path class="st3" d="M35,24c-6,0-11,5-11,11s5,11,11,11s11-5,11-11S41,24,35,24z M42,36h-6v6h-2v-6h-6v-2h6v-6h2v6h6V36z"/>
</g>
</svg>
