<?xml version="1.0" encoding="utf-8"?>
<!-- Generator: Adobe Illustrator 27.2.0, SVG Export Plug-In . SVG Version: 6.00 Build 0)  -->
<svg version="1.1" id="Layer_1" xmlns="http://www.w3.org/2000/svg" xmlns:xlink="http://www.w3.org/1999/xlink" x="0px" y="0px"
	 viewBox="0 0 32 32" style="enable-background:new 0 0 32 32;" xml:space="preserve">
<style type="text/css">
	.st0{fill:#4A4A4A;}
</style>
<rect x="14" y="16" transform="matrix(0.7071 0.7071 -0.7071 0.7071 20.6569 -3.8701)" class="st0" width="2" height="14"/>
<rect x="14" y="12" class="st0" width="2" height="4"/>
<rect x="14" y="30" class="st0" width="2" height="2"/>
<rect x="14" y="16" transform="matrix(0.7071 -0.7071 0.7071 0.7071 -11.8701 17.3431)" class="st0" width="2" height="14"/>
</svg>
