<?xml version="1.0" encoding="utf-8"?>
<!-- Generator: Adobe Illustrator 21.0.0, SVG Export Plug-In . SVG Version: 6.00 Build 0)  -->
<svg version="1.1" id="Layer_1" xmlns="http://www.w3.org/2000/svg" xmlns:xlink="http://www.w3.org/1999/xlink" x="0px" y="0px"
	 viewBox="0 0 32 32" style="enable-background:new 0 0 32 32;" xml:space="preserve">
<style type="text/css">
	.st0{fill:#F3F3F3;}
</style>
<rect x="14" y="16" class="st0" width="18" height="2"/>
<rect x="14" y="30" class="st0" width="18" height="2"/>
<rect x="30" y="18" class="st0" width="2" height="12"/>
<polygon class="st0" points="18,22 25,22 25,20 29,24 25,28 25,26 18,26 "/>
<rect x="14" y="18" class="st0" width="2" height="12"/>
</svg>
