<?xml version="1.0" encoding="utf-8"?>
<!-- Generator: Adobe Illustrator 22.1.0, SVG Export Plug-In . SVG Version: 6.00 Build 0)  -->
<svg version="1.1" id="Layer_1" xmlns="http://www.w3.org/2000/svg" xmlns:xlink="http://www.w3.org/1999/xlink" x="0px" y="0px"
	 viewBox="0 0 32 32" style="enable-background:new 0 0 32 32;" xml:space="preserve">
<style type="text/css">
	.st0{fill:#F0F0F0;}
</style>
<g id="Layer_5">
	<rect x="10" y="10" class="st0" width="4" height="4"/>
	<rect x="18" y="10" class="st0" width="4" height="4"/>
	<rect x="6" y="14" class="st0" width="4" height="4"/>
	<rect x="14" y="14" class="st0" width="4" height="4"/>
	<rect x="22" y="14" class="st0" width="4" height="4"/>
	<rect x="10" y="18" class="st0" width="4" height="4"/>
	<rect x="18" y="18" class="st0" width="4" height="4"/>
	<rect x="6" y="22" class="st0" width="4" height="4"/>
	<rect x="14" y="22" class="st0" width="4" height="4"/>
	<rect x="22" y="22" class="st0" width="4" height="4"/>
	<rect x="10" y="26" class="st0" width="4" height="2"/>
	<rect x="18" y="26" class="st0" width="4" height="2"/>
</g>
</svg>
