<?xml version="1.0" encoding="UTF-8"?>
<!-- Generator: Adobe Illustrator 19.2.1, SVG Export Plug-In . SVG Version: 6.00 Build 0)  -->
<svg xmlns="http://www.w3.org/2000/svg" xmlns:xlink="http://www.w3.org/1999/xlink" version="1.1" x="0px" y="0px" viewBox="0 0 48 48" style="enable-background:new 0 0 48 48;" xml:space="preserve">
<style type="text/css">
	.st0{display:none;}
	.st1{display:inline;fill:#4A4A4A;}
	.st2{fill:#E40015;}
</style>

<g id="Layer_2">
	<g>
		<path class="st2" d="M45,38H23c0,0-1,0-1-1v-4c0-1,1-1,1-1h22c0,0,1,0,1,1v4C46,38,45,38,45,38z"/>
	</g>
</g>
</svg>
