<?xml version="1.0" encoding="UTF-8"?>
<!-- Generator: Adobe Illustrator 19.2.1, SVG Export Plug-In . SVG Version: 6.00 Build 0)  -->
<svg xmlns="http://www.w3.org/2000/svg" xmlns:xlink="http://www.w3.org/1999/xlink" version="1.1" x="0px" y="0px" viewBox="0 0 48 48" style="enable-background:new 0 0 48 48;" xml:space="preserve">
<style type="text/css">
	.st0{display:none;}
	.st1{display:inline;}
	.st2{fill:#4A4A4A;}
</style>

<g id="Layer_1">
	<polygon class="st2" points="42,34 8,34 12,29.5 17,22.4 18,25.1 24,19.7 26,20.6 29,17 36,27.7  "/>
	<circle class="st2" cx="39" cy="16" r="3"/>
	<path class="st2" d="M2,10v28h44V10H2z M44,36H4V12h40V36z"/>
</g>
</svg>
