<?xml version="1.0" encoding="UTF-8"?>
<!-- Generator: Adobe Illustrator 19.2.1, SVG Export Plug-In . SVG Version: 6.00 Build 0)  -->
<svg xmlns="http://www.w3.org/2000/svg" xmlns:xlink="http://www.w3.org/1999/xlink" version="1.1" x="0px" y="0px" viewBox="0 0 48 48" style="enable-background:new 0 0 48 48;" xml:space="preserve">
<style type="text/css">
	.st0{display:none;}
	.st1{display:inline;}
	.st2{fill:#4A4A4A;}
</style>

<g id="Layer_2_1_">
	<rect x="12" y="2" class="st2" width="2" height="4"/>
	<rect x="34" y="2" class="st2" width="2" height="4"/>
	<path class="st2" d="M40.1,4H38v4h-6V4H16v4h-6V4H7.9C6.8,4,6,4.8,6,5.9v36.3c0,1,0.8,1.9,1.9,1.9h32.3c1,0,1.9-0.8,1.9-1.9V5.9   C42,4.8,41.2,4,40.1,4z M38,40H10V13h28V40z"/>
</g>
</svg>
