<?xml version="1.0" encoding="utf-8"?>
<!-- Generator: Adobe Illustrator 25.2.1, SVG Export Plug-In . SVG Version: 6.00 Build 0)  -->
<svg version="1.1" id="Layer_1" xmlns="http://www.w3.org/2000/svg" xmlns:xlink="http://www.w3.org/1999/xlink" x="0px" y="0px"
	 viewBox="0 0 48 48" style="enable-background:new 0 0 48 48;" xml:space="preserve">
<style type="text/css">
	.st0{fill:#4A4A4A;}
</style>
<rect x="20" y="8" class="st0" width="2" height="34"/>
<polygon class="st0" points="40,16 24,7.8 24,24 "/>
<path class="st0" d="M30,42H12v-1c0-5,4-9,9-9l0,0c5,0,9,4,9,9V42z"/>
</svg>
