<?xml version="1.0" encoding="utf-8"?>
<!-- Generator: Adobe Illustrator 22.1.0, SVG Export Plug-In . SVG Version: 6.00 Build 0)  -->
<svg version="1.1" id="Layer_1" xmlns="http://www.w3.org/2000/svg" xmlns:xlink="http://www.w3.org/1999/xlink" x="0px" y="0px"
	 viewBox="0 0 48 48" style="enable-background:new 0 0 48 48;" xml:space="preserve">
<style type="text/css">
	.st0{fill:#4A4A4A;}
</style>
<rect x="8" y="4" class="st0" width="32" height="2"/>
<rect x="8" y="42" class="st0" width="32" height="2"/>
<rect x="13" y="34" class="st0" width="22" height="2"/>
<rect x="13" y="12" class="st0" width="22" height="2"/>
<path class="st0" d="M40,46h-4C36,12,8,40,8,2h4C12,36,40,8,40,46z"/>
<g>
	<g>
		<path class="st0" d="M36,2c0,11.4-3.1,15.8-7.3,18.1l4.9,2C37.3,19.2,40,13.8,40,2H36z M8,46h4c0-17.4,7.3-18.6,14.5-20.6
			l-7.8-1.8C13,25.7,8,30,8,46z"/>
	</g>
</g>
</svg>
