<?xml version="1.0" encoding="utf-8"?>
<!-- Generator: Adobe Illustrator 25.4.1, SVG Export Plug-In . SVG Version: 6.00 Build 0)  -->
<svg version="1.1" id="Layer_1" xmlns="http://www.w3.org/2000/svg" xmlns:xlink="http://www.w3.org/1999/xlink" x="0px" y="0px"
	 viewBox="0 0 32 32" style="enable-background:new 0 0 32 32;" xml:space="preserve">
<style type="text/css">
	.st0{fill:#F3F3F3;}
	.st1{fill:#4A4A4A;}
</style>
<rect x="3" y="9" class="st0" width="26" height="18"/>
<polygon class="st1" points="20,8 20,10 28,10 28,26 4,26 4,10 12,10 12,8 2,8 2,28 30,28 30,8 "/>
<rect x="14" y="4" class="st1" width="4" height="8"/>
<rect x="6" y="12" class="st1" width="6" height="8"/>
<rect x="14" y="14" class="st1" width="12" height="2"/>
<rect x="14" y="18" class="st1" width="12" height="2"/>
<rect x="16" y="22" class="st1" width="10" height="2"/>
<rect x="6" y="22" class="st1" width="8" height="2"/>
</svg>
