<?xml version="1.0" encoding="utf-8"?>
<!-- Generator: Adobe Illustrator 19.2.1, SVG Export Plug-In . SVG Version: 6.00 Build 0)  -->
<svg version="1.1" id="Layer_1" xmlns="http://www.w3.org/2000/svg" xmlns:xlink="http://www.w3.org/1999/xlink" x="0px" y="0px"
	 viewBox="0 0 48 48" style="enable-background:new 0 0 48 48;" xml:space="preserve">
<style type="text/css">
	.st0{fill:#4A4A4A;}
</style>
<g>
	<g>
		<path class="st0" d="M2,10v28h44V10H2z M42,16c0,1.7-1.3,3-3,3s-3-1.3-3-3s1.3-3,3-3S42,14.3,42,16z M4,12h20v8l2.1,1.3l2.7-4
			L36,29l6,7H24V20l-6,6l-1-3l-5,8l-4,5H4V12z"/>
	</g>
</g>
</svg>
