<?xml version="1.0" encoding="utf-8"?>
<!-- Generator: Adobe Illustrator 21.0.0, SVG Export Plug-In . SVG Version: 6.00 Build 0)  -->
<svg version="1.1" id="Layer_3" xmlns="http://www.w3.org/2000/svg" xmlns:xlink="http://www.w3.org/1999/xlink" x="0px" y="0px"
	 viewBox="0 0 32 32" style="enable-background:new 0 0 32 32;" xml:space="preserve">
<style type="text/css">
	.st0{fill:#F3F3F3;}
</style>
<g>
	<g>
		<path class="st0" d="M28,19V6H4v20h17 M20,24H6V8h20v10L20,24z"/>
	</g>
</g>
<rect x="8" y="10" class="st0" width="16" height="2"/>
<rect x="8" y="14" class="st0" width="16" height="2"/>
<rect x="8" y="18" class="st0" width="10" height="2"/>
</svg>
