<?xml version="1.0" encoding="utf-8"?>
<!-- Generator: Adobe Illustrator 21.0.0, SVG Export Plug-In . SVG Version: 6.00 Build 0)  -->
<svg version="1.1" id="Layer_1" xmlns="http://www.w3.org/2000/svg" xmlns:xlink="http://www.w3.org/1999/xlink" x="0px" y="0px"
	 viewBox="0 0 48 48" style="enable-background:new 0 0 48 48;" xml:space="preserve">
<style type="text/css">
	.st0{fill:#1AA9E8;}
	.st1{fill:#494949;}
</style>
<g>
	<circle class="st0" cx="13" cy="23" r="3"/>
	<circle class="st0" cx="22" cy="23" r="3"/>
	<circle class="st0" cx="31" cy="23" r="3"/>
</g>
<g>
	<g>
		<path class="st1" d="M40,11H4v24h36l6-12L40,11z M38.6,33H6V13h32.6L42,23L38.6,33z"/>
	</g>
</g>
</svg>
