<?xml version="1.0" encoding="UTF-8"?>
<!-- Generator: Adobe Illustrator 19.2.1, SVG Export Plug-In . SVG Version: 6.00 Build 0)  -->
<svg xmlns="http://www.w3.org/2000/svg" xmlns:xlink="http://www.w3.org/1999/xlink" version="1.1" id="Layer_1" x="0px" y="0px" viewBox="0 0 48 48" style="enable-background:new 0 0 48 48;" xml:space="preserve">
<style type="text/css">
	.st0{fill:none;stroke:#4A4A4A;stroke-width:4;stroke-miterlimit:10;}
	.st1{fill:#6D6E70;stroke:#4A4A4A;stroke-miterlimit:10;}
	.st2{fill:none;stroke:#4A4A4A;stroke-width:3;stroke-miterlimit:10;}
	.st3{fill:#4A4A4A;stroke:#4A4A4A;stroke-miterlimit:10;}
	.st4{display:none;}
	.st5{display:inline;fill:#F3F3F3;}
</style>
<g id="Layer_1_1_">
</g>
<circle class="st0" cx="24" cy="24" r="18"/>
<circle class="st1" cx="4" cy="13" r="0"/>
<circle class="st2" cx="24" cy="24" r="12"/>
<circle class="st3" cx="23.8" cy="24.2" r="2.8"/>

<g id="Layer_3">
</g>
</svg>
