<?xml version="1.0" encoding="utf-8"?>
<!-- Generator: Adobe Illustrator 21.0.0, SVG Export Plug-In . SVG Version: 6.00 Build 0)  -->
<svg version="1.1" id="Layer_1" xmlns="http://www.w3.org/2000/svg" xmlns:xlink="http://www.w3.org/1999/xlink" x="0px" y="0px"
	 viewBox="0 0 48 48" style="enable-background:new 0 0 48 48;" xml:space="preserve">
<style type="text/css">
	.st0{fill:#F3F3F3;}
</style>
<g>
	<path class="st0" d="M44.3,19.4l-14-2L24,4.6l-6.3,12.8l-14,2l10.2,10l-2.4,14L24,36.8l12.5,6.6l-2.4-14L44.3,19.4z M24,33.7l-9.5,5
		l1.8-10.6l-7.7-7.6L19.2,19L24,9.3l4.8,9.7l10.6,1.5l-7.7,7.6l1.8,10.6L24,33.7z"/>
	</g>
</svg>
