<?xml version="1.0" encoding="utf-8"?>
<!-- Generator: Adobe Illustrator 19.2.1, SVG Export Plug-In . SVG Version: 6.00 Build 0)  -->
<svg version="1.1" id="Layer_2_1_" xmlns="http://www.w3.org/2000/svg" xmlns:xlink="http://www.w3.org/1999/xlink" x="0px" y="0px"
	 viewBox="0 0 48 48" style="enable-background:new 0 0 48 48;" xml:space="preserve">
<style type="text/css">
	.st0{fill:#4A4A4A;}
</style>
<g>
	<g>
		<path class="st0" d="M2,0v10h10V0H2z M10,8H4V2h6V8z"/>
	</g>
</g>
<rect x="6" y="36" class="st0" width="10" height="10"/>
<rect x="20" y="36" class="st0" width="10" height="10"/>
<rect x="34" y="36" class="st0" width="10" height="10"/>
<rect x="20" y="22" class="st0" width="10" height="10"/>
<rect x="34" y="22" class="st0" width="10" height="10"/>
<rect x="20" y="8" class="st0" width="10" height="10"/>
<rect x="34" y="8" class="st0" width="10" height="10"/>
<g>
	<g>
		<path class="st0" d="M4,20v10h10V20H4z M12,28H6v-6h6V28z"/>
	</g>
</g>
</svg>
