<?xml version="1.0" encoding="UTF-8"?>
<svg xmlns="http://www.w3.org/2000/svg" xmlns:xlink="http://www.w3.org/1999/xlink" width="32px" height="32px" viewBox="0 0 32 32" x="0px" y="0px" version="1.1">
  <defs>
    <path id="tag-string" d="M4.3,2.3c-1.1-1-1.8-0.2-2,0c-0.2,0.2-1.1,1,0,2c0,0,8.2,7.6,8.9,6.9S5,3,4.3,2.3z"/>
    <path id="hole-outline" d="M14.4,9.3c-1-1-2.4-1.2-3.6-0.9c0.3,0.4,0.5,0.7,0.7,1.1c0.1,0,0.2,0,0.3,0c0.7,0,1.3,0.3,1.8,0.7c1,1,1,2.5,0,3.5c-0.9,0.9-2.6,0.9-3.5,0c-0.6-0.6-0.8-1.4-0.7-2.1c-0.3-0.2-0.7-0.4-1.1-0.7c-0.4,1.3-0.1,2.7,0.9,3.7c0.7,0.7,1.6,1.1,2.6,1.1c1,0,1.9-0.4,2.6-1.1C15.9,13.1,15.9,10.8,14.4,9.3z"/>
    <path id="tag-outline" d="M31.3,18L17,3.7h-6L8.7,5.8c0.4,0.5,0.9,1,1.3,1.6l1.8-1.7h4.4l13.8,13.8c0,0,0.1,0.1,0.1,0.1c0,0-0.1,0.1-0.1,0.1L19.3,29.9c0,0-0.1,0.1-0.1,0.1c0,0,0,0-0.1-0.1L5.4,16.2v-4.4L7.2,10c-0.5-0.4-1-0.8-1.5-1.3L3.4,11v6l14.3,14.3c0.5,0.5,1,0.7,1.5,0.7c0.9,0,1.6-0.7,1.6-0.7L31.3,21C31.3,21,32.8,19.5,31.3,18z"/>
  </defs>
  <g>
    <use xlink:href="#tag-string" fill="#ffffff" stroke="#ffffff" stroke-width="0"/>
    <use xlink:href="#hole-outline" fill="#ffffff" stroke="#ffffff" stroke-width="0"/>
    <use xlink:href="#tag-outline" fill="#ffffff" stroke="#ffffff" stroke-width="0"/>
  </g>
</svg>
